{
    "private": true,
    "devDependencies": {
      "react-scripts": "^1.0.10"
    },
    "dependencies": {
      "lodash": "^4.16.6",
      "prop-types": "^15.5.10",
      "qs": "^6.3.0",
      "rc-slider": "^5.4.3",
      "react": "^15.3.2",
      "react-dom": "^15.3.2",
      "react-instantsearch": "^5.0.3"
    },
    "scripts": {
      "start": "react-scripts start",
      "build": "react-scripts build && rsync -av build . && rm -rf build"
    },
    "main": "index.js",
    "license": "MIT"
  }